<?xml version="1.0" encoding="utf-8"?>
<!-- Generator: Adobe Illustrator 22.1.0, SVG Export Plug-In . SVG Version: 6.00 Build 0)  -->
<svg version="1.1" id="Camada_1" xmlns="http://www.w3.org/2000/svg" xmlns:xlink="http://www.w3.org/1999/xlink" x="0px" y="0px"
	 viewBox="0 0 565.5 241.3" style="enable-background:new 0 0 565.5 241.3;" xml:space="preserve">
<style type="text/css">
	.st0{fill:#6D7279;}
	.st1{fill:#6C8DC4;}
</style>
<g>
	<g>
		<g>
			<path class="st0" d="M307.1,135.5v6.4c0,1.9-0.9,3-2.7,3.4c-0.8,0.2-0.5,0.1-5.2,0.9l-14.3,45.3H274c-1.2,0-2-0.8-2.5-2.4
				l-10.1-32.4c-0.3-1.1-0.6-2.1-0.9-3.2c-0.3-1.1-0.5-2.1-0.7-3.2c-0.2,1.1-0.5,2.2-0.7,3.3c-0.3,1.1-0.5,2.2-0.9,3.2L248,189.1
				c-0.5,1.6-1.5,2.4-3,2.4h-10.3l-14.3-45.3c-4.6-0.8-4.3-0.8-5.2-0.9c-1.8-0.4-2.7-1.5-2.7-3.4v-6.4h4.5v0h10.7l0,0h12.1v6.4
				c0,1.9-0.9,3-2.7,3.4c-0.7,0.1-0.8,0.2-3.4,0.6l5.9,22c0.4,1.6,0.8,3.2,1.1,4.8c0.3,1.6,0.5,3.1,0.8,4.7c0.4-1.6,0.8-3.1,1.3-4.7
				c0.5-1.6,0.9-3.2,1.4-4.8l9.3-30c0.2-0.7,0.7-1.3,1.3-1.8c0.7-0.5,1.4-0.7,2.3-0.7h6c1,0,1.8,0.2,2.4,0.7
				c0.7,0.5,1.1,1.1,1.3,1.8l9.2,30.6c0.5,1.6,0.9,3.1,1.3,4.6c0.4,1.5,0.8,3,1.1,4.5c0.3-1.6,0.5-3.1,0.8-4.7
				c0.3-1.6,0.7-3.2,1.2-4.9l6.1-21.9c-3.1-0.5-3.2-0.6-3.9-0.7c-1.8-0.4-2.7-1.5-2.7-3.4v-6.4h12.6c0,0,0,0,0,0h10.2v0H307.1z"/>
		</g>
		<g>
			<path class="st0" d="M342.9,136.3c3,1.1,5.5,2.8,7.7,4.9c2.1,2.2,3.8,4.8,5,8c1.2,3.2,1.8,6.7,1.8,10.8c0,1-0.1,1.9-0.1,2.5
				c-0.1,0.7-0.3,1.2-0.5,1.6c-0.2,0.4-0.5,0.7-1,0.8c-0.4,0.2-0.9,0.2-1.5,0.2h-34.6c0.4,5.8,2,10,4.6,12.7c2.7,2.7,6.3,4,10.7,4
				c2.2,0,4.1-0.3,5.7-0.8c1.6-0.5,3-1.1,4.1-1.7c1.2-0.6,2.2-1.2,3.1-1.7c0.9-0.5,1.8-0.8,2.6-0.8c0.6,0,1,0.1,1.4,0.3
				c0.4,0.2,0.7,0.5,1,0.9l3.9,4.9c-1.5,1.8-3.2,3.2-5,4.4c-1.9,1.2-3.8,2.1-5.8,2.8c-2,0.7-4.1,1.2-6.2,1.5
				c-2.1,0.3-4.1,0.4-6.1,0.4c-3.9,0-7.5-0.6-10.9-1.9c-3.4-1.3-6.3-3.2-8.7-5.7c-2.5-2.5-4.4-5.7-5.8-9.4c-1.4-3.7-2.1-8.1-2.1-13
				c0-3.8,0.6-7.4,1.9-10.8c1.2-3.4,3-6.3,5.3-8.8c2.3-2.5,5.1-4.5,8.5-5.9c3.3-1.5,7.1-2.2,11.3-2.2
				C336.7,134.6,339.9,135.2,342.9,136.3z M324.2,147.6c-2.2,2.2-3.6,5.4-4.3,9.5h25.3c0-1.7-0.2-3.4-0.7-4.9
				c-0.5-1.5-1.2-2.9-2.2-4.1c-1-1.2-2.2-2.1-3.7-2.8c-1.5-0.7-3.2-1-5.2-1C329.5,144.3,326.4,145.4,324.2,147.6z"/>
		</g>
		<g>
			<path class="st0" d="M442.1,191.3h-7.6h-8.2c-0.9,0-1.6-0.2-2.3-0.6c-0.6-0.4-1-1-1.2-1.9l-1.1-5.2c-2.3,2.6-4.8,4.7-7.8,6.3
				c-2.9,1.6-6.4,2.4-10.3,2.4c-3.1,0-5.9-0.6-8.4-1.9c-2.5-1.3-4.7-3.1-6.6-5.5c-1.8-2.4-3.3-5.4-4.3-9c-1-3.6-1.5-7.6-1.5-12.2
				c0-4.2,0.6-8.1,1.7-11.6c1.1-3.6,2.7-6.7,4.8-9.3c2.1-2.6,4.6-4.7,7.6-6.1c3-1.5,6.3-2.2,10-2.2c3.2,0,5.8,0.5,8,1.4
				c2.2,1,4.2,2.3,5.9,4v-18.7c-1.4-0.2-2.4-0.4-3.2-0.6c-0.8-0.1-1.3-0.2-1.6-0.3c-0.3-0.1-0.5-0.1-0.7-0.1
				c-1.8-0.4-2.7-1.5-2.7-3.4v-6.4h8.3h13.5v70.2c1.2,0.2,2.1,0.4,2.8,0.5c0.7,0.1,1.2,0.2,1.4,0.3c0.3,0,0.5,0.1,0.6,0.1
				c1.8,0.4,2.7,1.5,2.7,3.4V191.3z M421,149.8c-1.5-1.9-3.2-3.2-5-4c-1.8-0.7-3.7-1.1-5.8-1.1c-2,0-3.9,0.4-5.5,1.2
				c-1.7,0.8-3.1,1.9-4.2,3.5c-1.2,1.6-2,3.5-2.7,5.9c-0.6,2.4-0.9,5.2-0.9,8.4c0,3.3,0.3,6.1,0.8,8.3c0.5,2.3,1.3,4.1,2.3,5.5
				c1,1.4,2.2,2.5,3.6,3.1c1.4,0.7,3,1,4.8,1c2.8,0,5.2-0.6,7.2-1.8c2-1.2,3.8-2.9,5.5-5V149.8z"/>
		</g>
		<g>
			<path class="st0" d="M475.9,185.1v6.4h-8.3h-13.5h-8.3v-6.4c0-1.9,0.9-3,2.7-3.4c0.2,0,0.4-0.1,0.7-0.1c0.3-0.1,0.8-0.2,1.6-0.3
				c0.8-0.1,1.9-0.3,3.2-0.6v-34.4c-1.4-0.2-2.4-0.4-3.2-0.6c-0.8-0.1-1.3-0.2-1.6-0.3c-0.3-0.1-0.5-0.1-0.7-0.1
				c-1.8-0.4-2.7-1.5-2.7-3.4v-6.4h8.3h13.5v45.2c1.4,0.2,2.4,0.4,3.2,0.6c0.8,0.1,1.3,0.2,1.6,0.3c0.3,0.1,0.5,0.1,0.7,0.1
				C475,182.1,475.9,183.2,475.9,185.1z M468.9,122.4c-0.5,1-1.1,1.9-1.9,2.7c-0.8,0.8-1.7,1.4-2.8,1.8c-1.1,0.5-2.2,0.7-3.4,0.7
				c-1.2,0-2.3-0.2-3.3-0.7c-1-0.5-1.9-1.1-2.7-1.8c-0.8-0.8-1.4-1.7-1.8-2.7c-0.5-1-0.7-2.1-0.7-3.3c0-1.2,0.2-2.3,0.7-3.4
				c0.5-1.1,1.1-2,1.8-2.7c0.8-0.8,1.7-1.4,2.7-1.8c1-0.5,2.1-0.7,3.3-0.7c1.2,0,2.3,0.2,3.4,0.7c1.1,0.5,2,1.1,2.8,1.8
				c0.8,0.8,1.4,1.7,1.9,2.7c0.5,1.1,0.7,2.2,0.7,3.4C469.6,120.3,469.4,121.4,468.9,122.4z"/>
		</g>
		<g>
			<path class="st0" d="M510,135.2c2.1,0.5,4,1.2,5.8,2.2h16.1v5c0,0.8-0.2,1.5-0.7,2c-0.4,0.5-1.2,0.8-2.2,1l-5,0.9
				c0.4,0.9,0.7,1.9,0.8,3c0.2,1.1,0.3,2.2,0.3,3.3c0,2.8-0.5,5.3-1.7,7.5c-1.1,2.2-2.6,4.1-4.6,5.7c-1.9,1.6-4.3,2.8-6.9,3.6
				c-2.7,0.9-5.6,1.3-8.7,1.3c-2.1,0-4.2-0.2-6.2-0.6c-1.7,1.1-2.6,2.2-2.6,3.6c0,1.1,0.5,2,1.5,2.5c1,0.5,2.4,0.9,4.1,1.1
				c1.7,0.2,3.6,0.4,5.8,0.4c2.2,0.1,4.4,0.2,6.6,0.4c2.3,0.2,4.5,0.5,6.6,1c2.2,0.5,4.1,1.2,5.8,2.2c1.7,1,3.1,2.3,4.1,4
				c1,1.7,1.6,3.9,1.6,6.5c0,2.5-0.6,4.9-1.8,7.2c-1.2,2.3-3,4.4-5.3,6.2c-2.3,1.8-5.1,3.3-8.5,4.4c-3.3,1.1-7.2,1.7-11.5,1.7
				c-4.3,0-8-0.4-11.1-1.2c-3.1-0.8-5.7-1.9-7.8-3.3c-2.1-1.4-3.6-2.9-4.6-4.7c-1-1.8-1.5-3.6-1.5-5.6c0-2.6,0.8-4.8,2.4-6.6
				c1.6-1.8,3.8-3.2,6.7-4.3c-1.4-0.8-2.5-1.8-3.3-3.1c-0.8-1.3-1.3-2.9-1.3-5c0-0.8,0.1-1.7,0.4-2.6c0.3-0.9,0.7-1.8,1.3-2.6
				c0.6-0.9,1.4-1.7,2.3-2.5c0.9-0.8,2-1.5,3.2-2.1c-2.8-1.5-5.1-3.6-6.7-6.1c-1.6-2.6-2.4-5.5-2.4-9c0-2.8,0.6-5.3,1.7-7.5
				c1.1-2.2,2.7-4.1,4.6-5.7c2-1.6,4.3-2.8,7.1-3.6c2.7-0.8,5.7-1.3,8.9-1.3C505.6,134.5,507.9,134.8,510,135.2z M517,191.4
				c-0.7-0.7-1.5-1.2-2.7-1.6c-1.1-0.4-2.4-0.7-4-0.9c-1.5-0.2-3.1-0.3-4.8-0.4c-1.7-0.1-3.4-0.2-5.2-0.3c-1.8-0.1-3.5-0.2-5.2-0.5
				c-1.5,0.8-2.8,1.8-3.7,3c-0.9,1.1-1.4,2.5-1.4,4c0,1,0.2,1.9,0.7,2.8c0.5,0.9,1.3,1.6,2.4,2.2c1.1,0.6,2.5,1.1,4.2,1.5
				c1.7,0.3,3.8,0.5,6.3,0.5c2.5,0,4.7-0.2,6.5-0.6c1.8-0.4,3.3-0.9,4.5-1.6c1.2-0.7,2-1.5,2.6-2.4c0.5-0.9,0.8-1.9,0.8-3
				C518,192.9,517.7,192.1,517,191.4z M507.6,161.5c1.2-0.5,2.3-1.1,3.1-1.9c0.8-0.8,1.4-1.8,1.9-2.9c0.4-1.1,0.6-2.4,0.6-3.7
				c0-2.8-0.8-5-2.5-6.6c-1.7-1.6-4.1-2.4-7.5-2.4c-3.3,0-5.8,0.8-7.5,2.4c-1.7,1.6-2.5,3.8-2.5,6.6c0,1.3,0.2,2.5,0.6,3.7
				c0.4,1.1,1,2.1,1.9,2.9c0.8,0.8,1.9,1.5,3.1,1.9c1.3,0.5,2.7,0.7,4.3,0.7C504.9,162.1,506.3,161.9,507.6,161.5z"/>
		</g>
		<g>
			<path class="st0" d="M565.5,185.1v6.4h-8.3h-13.5h-8.3v-6.4c0-1.9,0.9-3,2.7-3.4c0.2,0,0.4-0.1,0.7-0.1c0.3-0.1,0.8-0.2,1.6-0.3
				c0.8-0.1,1.9-0.3,3.2-0.6v-34.4c-1.4-0.2-2.4-0.4-3.2-0.6c-0.8-0.1-1.3-0.2-1.6-0.3c-0.3-0.1-0.5-0.1-0.7-0.1
				c-1.8-0.4-2.7-1.5-2.7-3.4v-6.4h8.3h13.5v45.2c1.4,0.2,2.4,0.4,3.2,0.6c0.8,0.1,1.3,0.2,1.6,0.3c0.3,0.1,0.5,0.1,0.7,0.1
				C564.6,182.1,565.5,183.2,565.5,185.1z M558.5,122.4c-0.5,1-1.1,1.9-1.9,2.7c-0.8,0.8-1.7,1.4-2.8,1.8c-1.1,0.5-2.2,0.7-3.4,0.7
				c-1.2,0-2.3-0.2-3.3-0.7c-1-0.5-1.9-1.1-2.7-1.8c-0.8-0.8-1.4-1.7-1.8-2.7c-0.4-1-0.7-2.1-0.7-3.3c0-1.2,0.2-2.3,0.7-3.4
				c0.5-1.1,1.1-2,1.8-2.7c0.8-0.8,1.7-1.4,2.7-1.8c1-0.5,2.1-0.7,3.3-0.7c1.2,0,2.3,0.2,3.4,0.7c1.1,0.5,2,1.1,2.8,1.8
				c0.8,0.8,1.4,1.7,1.9,2.7c0.5,1.1,0.7,2.2,0.7,3.4C559.3,120.3,559,121.4,558.5,122.4z"/>
		</g>
		<g>
			<path class="st1" d="M363.7,180.9c0.4-1,1-1.9,1.7-2.6c0.8-0.7,1.6-1.3,2.6-1.7c1-0.4,2.1-0.7,3.3-0.7c1.1,0,2.2,0.2,3.2,0.7
				c1,0.4,1.9,1,2.6,1.7c0.7,0.7,1.3,1.6,1.7,2.6c0.4,1,0.7,2.1,0.7,3.2c0,1.2-0.2,2.3-0.7,3.2c-0.4,1-1,1.9-1.7,2.6
				c-0.7,0.7-1.6,1.3-2.6,1.7c-1,0.4-2.1,0.6-3.2,0.6c-1.2,0-2.3-0.2-3.3-0.6c-1-0.4-1.9-1-2.6-1.7c-0.7-0.7-1.3-1.6-1.7-2.6
				c-0.4-1-0.6-2.1-0.6-3.2C363.1,183,363.3,181.9,363.7,180.9z"/>
		</g>
	</g>
	<g>
		<path class="st1" d="M250.6,231.7c0,0-0.1,0-0.2,0l-0.7,0c-0.2,0-0.4,0-0.7,0v-11.2c0-1.1-0.1-2.2-0.4-3.1
			c-0.3-0.9-0.7-1.8-1.3-2.4c-0.5-0.7-1.3-1.2-2.1-1.5c-0.8-0.4-1.8-0.5-2.9-0.5c-1.5,0-2.9,0.3-4,0.8c-1.2,0.5-2.3,1.4-3.4,2.4
			l-0.1,0.1l0.4,0.8c0.3,0.6,1,0.8,1.8,0c0.3-0.3,0.7-0.5,1.1-0.9c0.5-0.3,1-0.6,1.7-0.9c0.6-0.3,1.4-0.4,2.4-0.4
			c1.5,0,2.6,0.5,3.3,1.4c0.8,0.9,1.1,2.3,1.1,4.1v1.8c-2.2,0.1-4.1,0.2-5.6,0.6c-1.6,0.3-3,0.8-4,1.3c-1.1,0.6-1.9,1.2-2.4,2
			c-0.5,0.8-0.8,1.6-0.8,2.5c0,0.9,0.2,1.8,0.5,2.5c0.3,0.7,0.7,1.3,1.3,1.7c0.5,0.4,1.1,0.8,1.8,1c0.7,0.2,1.4,0.3,2.1,0.3
			c0.8,0,1.6-0.1,2.3-0.2c0.7-0.2,1.4-0.4,2-0.7c0.6-0.3,1.2-0.7,1.7-1.1c0.4-0.3,0.8-0.7,1.3-1.1l0.2,2.1c0.1,0.5,0.5,0.8,1,0.8
			h3.7v-1.1C251.7,232.1,251.3,231.8,250.6,231.7z M246.6,224.1v4.8c-0.4,0.4-0.9,0.9-1.3,1.3c-0.5,0.4-1,0.8-1.5,1
			c-0.5,0.3-1.1,0.5-1.8,0.7c-0.6,0.2-1.3,0.2-2.1,0.2c-0.5,0-1-0.1-1.4-0.2c-0.4-0.1-0.8-0.4-1.2-0.6c-0.3-0.3-0.6-0.7-0.8-1.1
			c-0.2-0.5-0.3-1-0.3-1.6c0-0.6,0.2-1.2,0.6-1.7c0.4-0.5,1-1,1.9-1.4c0.9-0.4,2-0.7,3.3-0.9C243.3,224.3,244.8,224.2,246.6,224.1z"
			/>
		<path class="st1" d="M264.2,213.2c-0.8-0.2-1.6-0.3-2.5-0.3c-1.1,0-2.1,0.2-3,0.5c-0.9,0.3-1.7,0.8-2.4,1.4
			c-0.6,0.6-1.2,1.3-1.5,2.1c-0.4,0.8-0.5,1.7-0.5,2.7c0,1.3,0.3,2.4,0.8,3.3c0.5,0.8,1.1,1.5,1.9,2.1c-0.3,0.2-0.5,0.3-0.7,0.5
			c-0.3,0.3-0.6,0.6-0.8,0.9c-0.2,0.3-0.4,0.7-0.5,1c-0.1,0.3-0.2,0.7-0.2,1c0,0.8,0.2,1.5,0.7,2c0.3,0.3,0.6,0.6,1.1,0.8
			c-1,0.4-1.8,0.9-2.4,1.6c-0.7,0.8-1.1,1.8-1.1,2.9c0,0.8,0.2,1.5,0.6,2.2c0.4,0.7,1,1.3,1.7,1.8c0.7,0.5,1.7,0.9,2.8,1.2
			c1.1,0.3,2.4,0.4,3.8,0.4c1.4,0,2.7-0.2,3.8-0.6c1.1-0.4,2.1-0.8,2.9-1.5c0.8-0.6,1.4-1.3,1.9-2.1c0.4-0.8,0.7-1.7,0.7-2.5
			c0-1-0.2-1.7-0.7-2.3c-0.4-0.6-1-1-1.7-1.4c-0.7-0.3-1.5-0.5-2.4-0.7c-0.9-0.1-1.7-0.2-2.6-0.3c-0.9,0-1.7-0.1-2.6-0.1
			c-0.8,0-1.6-0.1-2.2-0.3c-0.6-0.1-1.1-0.3-1.5-0.6c-0.3-0.3-0.5-0.6-0.5-1.1c0-0.4,0.1-0.7,0.4-1.1c0.3-0.4,0.7-0.7,1.1-1
			c0.9,0.3,2,0.5,3.1,0.5c1.1,0,2.1-0.2,3-0.5c0.9-0.3,1.7-0.8,2.3-1.4c0.7-0.6,1.2-1.3,1.5-2.1c0.4-0.8,0.5-1.7,0.5-2.7
			c0-0.7-0.1-1.5-0.3-2.1c-0.2-0.5-0.4-1-0.6-1.4l2.6-0.2c0.5,0,0.8-0.3,0.8-0.8v-0.9h-5.3C265.7,213.7,265,213.4,264.2,213.2z
			 M261.7,224.4c-0.8,0-1.5-0.1-2.2-0.4c-0.6-0.2-1.2-0.6-1.6-1c-0.4-0.4-0.8-0.9-1-1.5c-0.2-0.6-0.3-1.2-0.3-2c0-0.7,0.1-1.4,0.3-2
			c0.2-0.6,0.6-1.1,1-1.5c0.4-0.4,1-0.7,1.6-1c0.6-0.2,1.4-0.3,2.2-0.3s1.5,0.1,2.2,0.3c0.6,0.2,1.2,0.6,1.6,1
			c0.4,0.4,0.8,0.9,1,1.5c0.2,0.6,0.3,1.3,0.3,2c0,0.7-0.1,1.4-0.3,2c-0.2,0.6-0.6,1.1-1,1.5c-0.4,0.4-1,0.7-1.6,1
			C263.3,224.2,262.6,224.4,261.7,224.4z M261.9,239.3c-1.1,0-2-0.1-2.9-0.3c-0.8-0.2-1.5-0.5-2.1-0.8c-0.5-0.3-1-0.8-1.2-1.2
			c-0.3-0.5-0.4-1-0.4-1.5c0-0.4,0.1-0.8,0.2-1.2c0.2-0.4,0.4-0.7,0.7-1c0.3-0.3,0.6-0.6,1.1-0.8c0.4-0.2,0.8-0.5,1.3-0.6
			c0.7,0.1,1.4,0.2,2.2,0.2l2.4,0.1c0.8,0,1.5,0.1,2.2,0.2c0.7,0.1,1.3,0.2,1.8,0.4c0.5,0.2,0.9,0.5,1.2,0.8
			c0.3,0.3,0.4,0.8,0.4,1.3c0,0.6-0.2,1.2-0.5,1.7c-0.3,0.5-0.8,1-1.5,1.4c-0.6,0.4-1.4,0.7-2.2,0.9
			C263.9,239.2,262.9,239.3,261.9,239.3z"/>
		<path class="st1" d="M288.3,215.2c-0.7-0.8-1.6-1.4-2.6-1.8c-1-0.4-2.1-0.6-3.2-0.6c-1.5,0-2.8,0.3-3.9,0.8
			c-1.2,0.5-2.1,1.2-2.9,2.1c-0.8,0.9-1.4,2-1.8,3.2c-0.4,1.2-0.6,2.6-0.6,4.1c0,1.7,0.2,3.3,0.7,4.6c0.4,1.4,1.1,2.5,1.9,3.5
			c0.8,0.9,1.8,1.7,3,2.2c1.2,0.5,2.5,0.7,3.9,0.7c0.8,0,1.5-0.1,2.3-0.2c0.8-0.1,1.5-0.4,2.1-0.6c0.7-0.3,1.3-0.6,1.8-0.9
			c0.5-0.4,1-0.8,1.3-1.2l0.1-0.2l-0.7-0.8c-0.1-0.2-0.4-0.3-0.6-0.3c-0.2,0-0.5,0.1-0.8,0.4c-0.3,0.2-0.7,0.5-1.2,0.7
			c-0.5,0.3-1.1,0.5-1.8,0.7c-0.7,0.2-1.6,0.3-2.5,0.3c-1.1,0-2.1-0.2-3-0.6c-0.9-0.4-1.6-0.9-2.2-1.7c-0.6-0.7-1.1-1.7-1.4-2.8
			c-0.3-1.1-0.5-2.4-0.5-3.9v-0.1h14.2c0.3,0,0.5-0.1,0.6-0.3c0.1-0.2,0.2-0.4,0.2-0.8c0-1.4-0.2-2.7-0.6-3.8
			C289.6,216.9,289,216,288.3,215.2z M288.3,221.2h-12.6c0.1-0.9,0.4-1.7,0.7-2.5c0.4-0.8,0.8-1.5,1.4-2.1c0.6-0.6,1.3-1,2-1.3
			c0.8-0.3,1.7-0.5,2.7-0.5c0.9,0,1.7,0.2,2.4,0.5c0.7,0.3,1.3,0.7,1.8,1.3c0.5,0.6,0.9,1.3,1.2,2.1
			C288.1,219.4,288.3,220.2,288.3,221.2z"/>
		<path class="st1" d="M279,210.1c0.1-0.1,0.2-0.1,0.3-0.2l3.2-3.3c0,0,0,0,0,0c0,0,0,0,0,0l3.1,3.3c0.2,0.2,0.5,0.3,0.7,0.3h1.9
			l-4.9-5.5h-2l-4.9,5.5h2C278.7,210.2,278.8,210.2,279,210.1z"/>
		<path class="st1" d="M313.6,231.7l-1.8-0.1v-11c0-1.2-0.1-2.3-0.4-3.2c-0.3-1-0.7-1.8-1.3-2.5c-0.6-0.7-1.3-1.2-2.2-1.6
			c-0.9-0.4-1.9-0.5-3-0.5c-1.5,0-3,0.4-4.2,1.1c-1.1,0.6-2,1.4-2.8,2.3l-0.1-2.4c-0.1-0.5-0.4-0.7-0.9-0.7h-4.2v1.1
			c0,0.3,0.1,0.9,1,1l1.9,0.1v16.3l-1.9,0.1c-0.7,0-1.1,0.4-1.1,1v1.1h8.3v-1.1c0-0.6-0.4-0.9-1.1-1l-1.8-0.1v-13.1
			c0.8-1.1,1.8-2,2.9-2.6c1.1-0.7,2.3-1,3.5-1c1.7,0,2.9,0.5,3.7,1.5c0.8,1,1.2,2.4,1.2,4.3v13.1h5.4v-1.1
			C314.7,232.1,314.3,231.8,313.6,231.7z"/>
		<path class="st1" d="M330.4,230.2c-0.2,0.2-0.6,0.5-1,0.7c-0.4,0.3-0.9,0.5-1.6,0.7c-0.6,0.2-1.4,0.3-2.3,0.3
			c-1,0-1.9-0.2-2.7-0.6c-0.8-0.4-1.5-0.9-2.1-1.6c-0.6-0.7-1-1.6-1.3-2.7c-0.3-1.1-0.5-2.3-0.5-3.7c0-1.3,0.2-2.5,0.5-3.6
			c0.3-1.1,0.8-2,1.4-2.7c0.6-0.7,1.3-1.3,2.2-1.7c0.9-0.4,1.8-0.6,3-0.6c0.9,0,2,0.2,3.2,0.6c0,0.5,0.1,0.9,0.1,1.3
			c0,0.5,0.1,0.9,0.1,1.1c0,0.3,0,0.4,0,0.5c0.1,1.1,0.7,1.2,1.1,1.2h1.3v-5.5l-1.3-0.4c-0.7-0.2-1.6-0.4-2.5-0.6
			c-1-0.2-1.7-0.3-2.2-0.3c-1.5,0-2.8,0.3-4,0.8c-1.1,0.5-2.1,1.3-2.9,2.2c-0.8,0.9-1.4,2.1-1.8,3.4c-0.4,1.3-0.6,2.7-0.6,4.3
			c0,1.6,0.2,3.1,0.7,4.4c0.4,1.3,1,2.4,1.8,3.3c0.8,0.9,1.7,1.6,2.8,2.1c1.1,0.5,2.3,0.7,3.6,0.7c0.8,0,1.5-0.1,2.2-0.2
			c0.7-0.1,1.4-0.4,2-0.6c0.6-0.3,1.2-0.6,1.6-0.9c0.5-0.4,0.9-0.8,1.2-1.2l0.1-0.2l-0.7-0.8C331.6,229.7,331.1,229.6,330.4,230.2z"
			/>
		<path class="st1" d="M337.1,207.9c0.2,0.2,0.4,0.3,0.6,0.4c0.2,0.1,0.5,0.2,0.8,0.2c0.3,0,0.5-0.1,0.8-0.2
			c0.2-0.1,0.5-0.3,0.6-0.4c0.2-0.2,0.3-0.4,0.4-0.6c0.1-0.2,0.2-0.5,0.2-0.8c0-0.3-0.1-0.6-0.2-0.8c-0.1-0.3-0.3-0.5-0.4-0.7
			c-0.2-0.2-0.4-0.3-0.6-0.4c-0.5-0.2-1.1-0.2-1.6,0c-0.2,0.1-0.5,0.3-0.6,0.4c-0.2,0.2-0.3,0.4-0.4,0.7c-0.1,0.3-0.2,0.5-0.2,0.8
			c0,0.3,0.1,0.5,0.2,0.8C336.7,207.5,336.9,207.8,337.1,207.9z"/>
		<path class="st1" d="M341.6,231.7l-1.9-0.1v-18.5h-5.4v1.1c0,0.3,0.1,0.9,1.1,1l1.8,0.1v16.3l-1.6,0.1c-0.1,0-0.2,0-0.3,0
			c-0.7,0-1.1,0.4-1.1,1v1.1h8.3v-1.1C342.6,232.1,342.3,231.8,341.6,231.7z"/>
		<path class="st1" d="M361.2,231.7c0,0-0.1,0-0.2,0l-0.7,0c-0.2,0-0.4,0-0.7,0v-11.2c0-1.1-0.1-2.2-0.4-3.1
			c-0.3-0.9-0.7-1.7-1.3-2.4c-0.5-0.7-1.3-1.2-2.1-1.5c-0.8-0.4-1.8-0.5-2.9-0.5c-1.5,0-2.9,0.3-4,0.8c-1.2,0.5-2.3,1.4-3.4,2.4
			l-0.1,0.1l0.4,0.8c0.3,0.6,1,0.8,1.8,0c0.3-0.3,0.7-0.6,1.1-0.9c0.4-0.3,1-0.6,1.7-0.9c0.6-0.3,1.4-0.4,2.4-0.4
			c1.5,0,2.6,0.5,3.3,1.4c0.8,0.9,1.1,2.3,1.1,4.1v1.8c-2.2,0.1-4,0.2-5.6,0.6c-1.6,0.3-3,0.8-4,1.3c-1.1,0.6-1.9,1.2-2.4,2
			c-0.5,0.8-0.8,1.6-0.8,2.5c0,1,0.2,1.8,0.5,2.5c0.3,0.7,0.7,1.3,1.3,1.7c0.5,0.4,1.1,0.8,1.8,1c0.7,0.2,1.4,0.3,2.1,0.3
			c0.8,0,1.6-0.1,2.3-0.2c0.7-0.2,1.4-0.4,2-0.7c0.6-0.3,1.2-0.7,1.8-1.1c0.4-0.3,0.8-0.7,1.3-1.1l0.2,2.1c0.1,0.5,0.5,0.8,1,0.8
			h3.7v-1.1C362.2,232.1,361.8,231.8,361.2,231.7z M357.1,224.1v4.8c-0.4,0.4-0.9,0.9-1.3,1.3c-0.5,0.4-1,0.8-1.5,1
			c-0.5,0.3-1.1,0.5-1.8,0.7c-0.6,0.2-1.3,0.2-2.1,0.2c-0.5,0-1-0.1-1.4-0.2c-0.4-0.1-0.8-0.4-1.2-0.6c-0.3-0.3-0.6-0.7-0.8-1.1
			c-0.2-0.5-0.3-1-0.3-1.6c0-0.6,0.2-1.2,0.6-1.7c0.4-0.5,1-1,1.9-1.4c0.9-0.4,2-0.7,3.3-0.9C353.8,224.3,355.4,224.2,357.1,224.1z"
			/>
		<path class="st1" d="M391.6,231.7l-1.6-0.1v-27.8h-5.4v1.1c0,0.6,0.4,1,1.1,1l1.8,0.1v9.3c-0.6-0.7-1.4-1.3-2.2-1.7
			c-1-0.5-2.3-0.8-3.7-0.8c-1.4,0-2.7,0.3-3.9,0.8c-1.1,0.6-2.1,1.3-2.8,2.3c-0.8,1-1.3,2.1-1.7,3.4c-0.4,1.3-0.6,2.7-0.6,4.2
			c0,3.5,0.7,6.1,2.1,7.9c1.4,1.8,3.4,2.7,6,2.7c1.5,0,2.9-0.4,4.1-1.1c1-0.6,1.9-1.4,2.8-2.4l0.2,2.5c0.1,0.5,0.4,0.8,0.9,0.8h4
			v-1.1C392.7,232.1,392.3,231.7,391.6,231.7z M387.5,217.8v10.4c-0.8,1.2-1.7,2.1-2.8,2.7c-1,0.7-2.2,1-3.5,1c-2,0-3.5-0.7-4.5-2
			c-1.1-1.4-1.6-3.5-1.6-6.4c0-1.3,0.2-2.5,0.4-3.5c0.3-1.1,0.7-2,1.3-2.7c0.6-0.7,1.3-1.3,2.1-1.7c0.8-0.4,1.8-0.6,3-0.6
			c1.1,0,2.2,0.2,3.1,0.7C386,216,386.8,216.8,387.5,217.8z"/>
		<path class="st1" d="M401.9,231.7l-1.9-0.1v-18.5h-5.4v1.1c0,0.3,0.1,0.9,1.1,1l1.8,0.1v16.3l-1.6,0.1c-0.1,0-0.2,0-0.3,0
			c-0.7,0-1.1,0.4-1.1,1v1.1h8.3v-1.1C403,232.1,402.6,231.8,401.9,231.7z"/>
		<path class="st1" d="M397.4,207.9c0.2,0.2,0.4,0.3,0.7,0.4c0.2,0.1,0.5,0.2,0.8,0.2c0.3,0,0.5-0.1,0.8-0.2
			c0.2-0.1,0.5-0.3,0.6-0.4c0.2-0.2,0.3-0.4,0.4-0.6c0.1-0.2,0.2-0.5,0.2-0.8c0-0.3-0.1-0.6-0.2-0.8c-0.1-0.3-0.3-0.5-0.4-0.7
			c-0.2-0.2-0.4-0.3-0.6-0.4c-0.5-0.2-1.1-0.2-1.6,0c-0.2,0.1-0.5,0.3-0.7,0.4c-0.2,0.2-0.3,0.4-0.4,0.7c-0.1,0.3-0.2,0.5-0.2,0.8
			c0,0.3,0.1,0.5,0.2,0.8C397.1,207.5,397.2,207.8,397.4,207.9z"/>
		<path class="st1" d="M415.4,213.2c-0.8-0.2-1.6-0.3-2.5-0.3c-1.1,0-2.1,0.2-3,0.5c-0.9,0.3-1.7,0.8-2.4,1.4
			c-0.7,0.6-1.2,1.3-1.5,2.1c-0.4,0.8-0.5,1.7-0.5,2.7c0,1.3,0.3,2.4,0.8,3.3c0.5,0.8,1.1,1.5,1.9,2.1c-0.3,0.2-0.5,0.3-0.7,0.5
			c-0.3,0.3-0.6,0.6-0.8,0.9c-0.2,0.3-0.4,0.7-0.5,1c-0.1,0.3-0.2,0.7-0.2,1c0,0.8,0.2,1.5,0.7,2c0.3,0.3,0.7,0.6,1.1,0.8
			c-1,0.4-1.8,0.9-2.4,1.6c-0.7,0.8-1.1,1.8-1.1,2.9c0,0.8,0.2,1.5,0.6,2.2c0.4,0.7,1,1.3,1.7,1.8c0.7,0.5,1.7,0.9,2.8,1.2
			c1.1,0.3,2.4,0.4,3.8,0.4c1.4,0,2.7-0.2,3.8-0.6c1.1-0.4,2.1-0.9,2.9-1.5c0.8-0.6,1.4-1.3,1.9-2.1c0.4-0.8,0.7-1.7,0.7-2.5
			c0-1-0.2-1.7-0.7-2.3c-0.4-0.6-1-1-1.7-1.4c-0.7-0.3-1.5-0.5-2.4-0.7c-0.9-0.1-1.7-0.2-2.6-0.3c-0.9,0-1.7-0.1-2.6-0.1
			c-0.8,0-1.6-0.1-2.2-0.3c-0.6-0.1-1.1-0.3-1.5-0.6c-0.3-0.3-0.5-0.6-0.5-1.1c0-0.4,0.1-0.7,0.4-1.1c0.3-0.4,0.6-0.7,1.1-1
			c0.9,0.3,2,0.5,3.1,0.5c1.1,0,2.1-0.2,3-0.5c0.9-0.3,1.7-0.8,2.3-1.4c0.7-0.6,1.2-1.3,1.5-2.1c0.4-0.8,0.6-1.7,0.6-2.7
			c0-0.7-0.1-1.5-0.3-2.1c-0.2-0.5-0.4-1-0.6-1.4l2.6-0.2c0.5,0,0.8-0.3,0.8-0.8v-0.9h-5.3C416.9,213.7,416.2,213.4,415.4,213.2z
			 M412.9,224.4c-0.8,0-1.5-0.1-2.2-0.4c-0.6-0.2-1.2-0.6-1.6-1c-0.4-0.4-0.8-0.9-1-1.5c-0.2-0.6-0.3-1.2-0.3-2c0-0.7,0.1-1.4,0.3-2
			c0.2-0.6,0.6-1.1,1-1.5c0.4-0.4,1-0.7,1.6-1c0.6-0.2,1.4-0.3,2.2-0.3c0.8,0,1.5,0.1,2.2,0.3c0.6,0.2,1.2,0.6,1.6,1
			c0.4,0.4,0.8,0.9,1,1.5c0.2,0.6,0.3,1.3,0.3,2c0,0.7-0.1,1.4-0.3,2c-0.2,0.6-0.6,1.1-1,1.5c-0.4,0.4-1,0.7-1.6,1
			C414.5,224.2,413.8,224.4,412.9,224.4z M413.1,239.3c-1.1,0-2-0.1-2.9-0.3c-0.8-0.2-1.5-0.5-2.1-0.8c-0.5-0.3-1-0.8-1.2-1.2
			c-0.3-0.5-0.4-1-0.4-1.5c0-0.4,0.1-0.8,0.2-1.2c0.2-0.4,0.4-0.7,0.7-1c0.3-0.3,0.6-0.6,1.1-0.8c0.4-0.2,0.8-0.5,1.3-0.6
			c0.7,0.1,1.4,0.2,2.2,0.2l2.4,0.1c0.8,0,1.5,0.1,2.2,0.2c0.7,0.1,1.3,0.2,1.8,0.4c0.5,0.2,0.9,0.5,1.2,0.8
			c0.3,0.3,0.4,0.8,0.4,1.3c0,0.6-0.2,1.2-0.5,1.7c-0.3,0.5-0.8,1-1.4,1.4c-0.6,0.4-1.4,0.7-2.2,0.9
			C415.1,239.2,414.1,239.3,413.1,239.3z"/>
		<path class="st1" d="M427.6,207.9c0.2,0.2,0.4,0.3,0.7,0.4c0.2,0.1,0.5,0.2,0.8,0.2c0.3,0,0.6-0.1,0.8-0.2
			c0.2-0.1,0.5-0.3,0.7-0.4c0.2-0.2,0.3-0.4,0.4-0.6c0.1-0.2,0.2-0.5,0.2-0.8c0-0.3-0.1-0.6-0.2-0.8c-0.1-0.3-0.3-0.5-0.4-0.7
			c-0.2-0.2-0.4-0.3-0.7-0.4c-0.5-0.2-1.1-0.2-1.6,0c-0.2,0.1-0.5,0.3-0.7,0.4c-0.2,0.2-0.3,0.4-0.4,0.7c-0.1,0.3-0.2,0.5-0.2,0.8
			c0,0.3,0.1,0.5,0.2,0.8C427.3,207.5,427.4,207.8,427.6,207.9z"/>
		<path class="st1" d="M432.1,231.7l-1.9-0.1v-18.5h-5.4v1.1c0,0.3,0.1,0.9,1.1,1l1.8,0.1v16.3l-1.6,0.1c-0.1,0-0.2,0-0.3,0
			c-0.7,0-1.1,0.4-1.1,1v1.1h8.3v-1.1C433.2,232.1,432.8,231.8,432.1,231.7z"/>
		<path class="st1" d="M444.9,230.9c-0.2,0.1-0.4,0.3-0.6,0.4c-0.2,0.2-0.5,0.3-0.9,0.4c-0.6,0.2-1.5,0.3-2.1,0
			c-0.3-0.1-0.6-0.3-0.8-0.5c-0.2-0.2-0.4-0.5-0.5-0.9c-0.1-0.4-0.2-0.8-0.2-1.3v-13.3h6.3v-2h-6.3v-7.7h-1.2
			c-0.2,0-0.4,0.1-0.6,0.2c-0.1,0.1-0.2,0.3-0.2,0.5l-0.5,6.9L434,214v1c0,0.3,0.1,0.5,0.2,0.6c0.1,0.1,0.3,0.2,0.5,0.2h2.6v13.4
			c0,1.6,0.4,2.9,1.2,3.7c0.8,0.8,1.9,1.2,3.4,1.2c0.9,0,1.7-0.2,2.6-0.5c0.8-0.4,1.5-0.8,2-1.4l0.1-0.2l-0.7-1
			C445.7,230.6,445.4,230.5,444.9,230.9z"/>
		<path class="st1" d="M465,231.7c0,0-0.1,0-0.2,0l-0.7,0c-0.2,0-0.4,0-0.6,0v-11.2c0-1.1-0.2-2.2-0.4-3.1c-0.3-0.9-0.7-1.7-1.3-2.4
			c-0.6-0.7-1.3-1.2-2.1-1.5c-0.8-0.4-1.8-0.5-2.9-0.5c-1.5,0-2.9,0.3-4,0.8c-1.2,0.5-2.3,1.4-3.4,2.4l-0.2,0.1l0.4,0.8
			c0.3,0.6,1,0.8,1.8,0c0.3-0.3,0.7-0.6,1.1-0.9c0.5-0.3,1-0.6,1.7-0.9c0.6-0.3,1.4-0.4,2.4-0.4c1.5,0,2.6,0.5,3.3,1.4
			c0.8,0.9,1.1,2.3,1.1,4.1v1.8c-2.1,0.1-4,0.2-5.6,0.6c-1.6,0.3-3,0.8-4,1.3c-1.1,0.6-1.9,1.2-2.4,2c-0.5,0.8-0.8,1.6-0.8,2.5
			c0,1,0.2,1.8,0.5,2.5c0.3,0.7,0.7,1.3,1.3,1.7c0.5,0.4,1.1,0.8,1.8,1c0.7,0.2,1.4,0.3,2.1,0.3c0.8,0,1.6-0.1,2.3-0.2
			c0.7-0.2,1.4-0.4,2-0.7c0.6-0.3,1.2-0.7,1.8-1.1c0.4-0.3,0.8-0.7,1.3-1.1l0.2,2.1c0.1,0.5,0.5,0.8,1,0.8h3.7v-1.1
			C466.1,232.1,465.7,231.8,465,231.7z M461,224.1v4.8c-0.4,0.4-0.9,0.9-1.3,1.3c-0.5,0.4-1,0.8-1.5,1c-0.5,0.3-1.1,0.5-1.7,0.7
			c-0.6,0.2-1.3,0.2-2.1,0.2c-0.5,0-1-0.1-1.4-0.2c-0.4-0.1-0.8-0.4-1.2-0.6c-0.3-0.3-0.6-0.7-0.8-1.1c-0.2-0.5-0.3-1-0.3-1.6
			c0-0.6,0.2-1.2,0.6-1.7c0.4-0.5,1-1,1.9-1.4c0.9-0.4,2-0.7,3.4-0.9C457.7,224.3,459.2,224.2,461,224.1z"/>
		<path class="st1" d="M475.5,231.7l-1.9-0.1v-27.8h-5.4v1.1c0,0.6,0.4,1,1.1,1l0.5,0c0.1,0,0.3,0,0.6,0l0.7,0v25.6l-1,0
			c-0.3,0-0.5,0-0.6,0l-0.3,0c-0.9,0-1.1,0.6-1.1,1v1.1h8.3v-1.1C476.5,232.4,476.4,231.8,475.5,231.7z"/>
	</g>
	<path class="st1" d="M263.3,55.8L222.8,39l7.6-6c0.8-0.6,1.1-1.6,0.9-2.5c-0.2-0.9-1-1.7-1.9-1.9l-37.1-7.5l2.6-18.3
		c0.1-0.9-0.2-1.8-0.9-2.3c-0.7-0.6-1.6-0.7-2.5-0.4l-10.1,4c-0.6,0.2-1,0.6-1.3,1.2l-42.8,84.1l-86.8,13.3L30.3,74.1
		c-0.5-0.7-1.2-1.1-2-1.1l-4,0c0,0,0,0,0,0c-0.7,0-1.4,0.3-1.9,0.9c-0.5,0.6-0.7,1.3-0.5,2.1l8.6,43L23.3,181L0,230.5
		c-0.4,0.8-0.3,1.7,0.1,2.4c0.5,0.7,1.3,1.2,2.1,1.2h23.5c0.8,0,1.6-0.4,2.1-1.1L68.7,170l30.6-2.4l51.1,8.4l22.2,56.5
		c0.4,0.9,1.3,1.6,2.3,1.6h15.2c0,0,0,0,0,0c1.4,0,2.5-1.1,2.5-2.5c0-0.2,0-0.4-0.1-0.5l-2.9-103.2l11.2-40l16.9,3.7l26.6,25.5
		c0.6,0.6,1.5,0.8,2.4,0.6c0.8-0.2,1.5-0.9,1.7-1.7l16.3-57.1C265.1,57.6,264.5,56.3,263.3,55.8z M257.9,59l-37,26.5l-1.3-42.4
		L257.9,59z M215.8,49.1l1.2,37.1L202.1,83L215.8,49.1z M223.1,32.4c0,0-5.1,3.9-6.7,5.3c-1.5,1.4-16.4,39.9-16.4,39.9l-8.1-51.5
		L223.1,32.4z M184,8.4l5.3-2.1l-2.1,15.2l-11,2.4L184,8.4z M170.9,34.1l14.3,92.8L153.4,169l-12.4-76c0,0,0,0,0.1-0.1L170.9,34.1z
		 M186.3,183.5l-30.9-10.7l29.6-39L186.3,183.5z M156.2,177.2l27,9.3l-20.2,7.8L156.2,177.2z M67.9,165.1l-32.3-45.9l13.4-11
		l46.1,54.7L67.9,165.1z M42.5,201.1l-13.7-18.4l32.9-11.1L42.5,201.1z M53.4,107.3l81.6-12.5l-35.9,66.8L53.4,107.3z M137.8,97.7
		l11.9,73.1l-47-7.7L137.8,97.7z M27.5,78.7l18.7,26.8l-11.5,9.4L27.5,78.7z M34.8,124.8l29.4,41.8l-35.6,12.1L34.8,124.8z
		 M24.4,229.1H6.2L26.5,186l13.8,18.6L24.4,229.1z M176.7,229.1L164.4,198l22.1-8.6l1.1,39.7H176.7z M187.6,117L174,28.4l13.8-3
		l9.2,58.3C196.9,83.9,187.6,117,187.6,117z M244.9,110.6l-22.4-21.5l35.8-25.6L244.9,110.6z"/>
</g>
</svg>
