<?xml version="1.0" encoding="utf-8"?>
<!-- Generator: Adobe Illustrator 22.1.0, SVG Export Plug-In . SVG Version: 6.00 Build 0)  -->
<svg version="1.1" id="Camada_1" xmlns="http://www.w3.org/2000/svg" xmlns:xlink="http://www.w3.org/1999/xlink" x="0px" y="0px"
	 viewBox="0 0 264.9 234" style="enable-background:new 0 0 264.9 234;" xml:space="preserve">
<style type="text/css">
	.st0{fill:#6C8DC4;}
</style>
<g>
	<path class="st0" d="M263.3,55.8L222.8,39l7.6-6c0.8-0.6,1.1-1.6,0.9-2.5c-0.2-0.9-1-1.7-1.9-1.9l-37.1-7.5l2.6-18.3
		c0.1-0.9-0.2-1.8-0.9-2.3c-0.7-0.6-1.6-0.7-2.5-0.4l-10.1,4c-0.6,0.2-1,0.6-1.3,1.2l-42.8,84.1l-86.8,13.3L30.3,74.1
		c-0.5-0.7-1.2-1.1-2-1.1l-4,0c0,0,0,0,0,0c-0.7,0-1.4,0.3-1.9,0.9c-0.5,0.6-0.7,1.3-0.5,2.1l8.6,43L23.3,181L0,230.5
		c-0.4,0.8-0.3,1.7,0.1,2.4c0.5,0.7,1.3,1.2,2.1,1.2h23.5c0.8,0,1.6-0.4,2.1-1.1L68.7,170l30.6-2.4l51.1,8.4l22.2,56.5
		c0.4,0.9,1.3,1.6,2.3,1.6h15.2c0,0,0,0,0,0c1.4,0,2.5-1.1,2.5-2.5c0-0.2,0-0.4-0.1-0.5l-2.9-103.2l11.2-40l16.9,3.7l26.6,25.5
		c0.6,0.6,1.5,0.8,2.4,0.6c0.8-0.2,1.5-0.9,1.7-1.7l16.3-57.1C265.1,57.6,264.5,56.3,263.3,55.8z M257.9,59l-37,26.5l-1.3-42.4
		L257.9,59z M215.8,49.1l1.2,37.1L202.1,83L215.8,49.1z M223.1,32.4c0,0-5.1,3.9-6.7,5.3c-1.5,1.4-16.4,39.9-16.4,39.9l-8.1-51.5
		L223.1,32.4z M184,8.4l5.3-2.1l-2.1,15.2l-11,2.4L184,8.4z M170.9,34.1l14.3,92.8L153.4,169l-12.4-76c0,0,0,0,0.1-0.1L170.9,34.1z
		 M186.3,183.5l-30.9-10.7l29.6-39L186.3,183.5z M156.2,177.2l27,9.3l-20.2,7.8L156.2,177.2z M67.9,165.1l-32.3-45.9l13.4-11
		l46.1,54.7L67.9,165.1z M42.5,201.1l-13.7-18.4l32.9-11.1L42.5,201.1z M53.4,107.3l81.6-12.5l-35.9,66.8L53.4,107.3z M137.8,97.7
		l11.9,73.1l-47-7.7L137.8,97.7z M27.5,78.7l18.7,26.8l-11.5,9.4L27.5,78.7z M34.8,124.8l29.4,41.8l-35.6,12.1L34.8,124.8z
		 M24.4,229.1H6.2L26.5,186l13.8,18.6L24.4,229.1z M176.7,229.1L164.4,198l22.1-8.6l1.1,39.7H176.7z M187.6,117L174,28.4l13.8-3
		l9.2,58.3C196.9,83.9,187.6,117,187.6,117z M244.9,110.6l-22.4-21.5l35.8-25.6L244.9,110.6z"/>
</g>
</svg>
